342 135 69
64 2 -1 2
65 2 -1 2
65 3 -1 2
66 3 -1 2
67 3 -1 2
68 3 -1 2
69 3 -1 2
70 3 -1 2
70 4 -1 2
71 4 -1 2
72 4 -1 2
73 4 -1 2
74 4 -1 2
75 4 -1 2
76 4 -1 2
77 4 -1 2
77 5 -1 2
78 5 -1 2
79 5 -1 2
80 5 -1 2
81 5 -1 2
82 5 -1 2
83 5 -1 2
84 5 -1 2
85 5 -1 2
86 5 -1 2
87 5 -1 2
88 5 -1 2
89 5 -1 2
89 6 -1 2
89 7 -1 2
89 8 -1 2
88 9 -1 2
89 9 -1 2
88 10 -1 2
87 11 -1 2
88 11 -1 2
87 12 -1 2
87 13 -1 2
15 14 -1 1
16 14 -1 1
87 14 -1 2
15 15 -1 1
16 15 -1 1
17 15 -1 1
18 15 -1 1
19 15 -1 1
87 15 -1 2
15 16 -1 1
19 16 -1 1
23 16 -1 1
24 16 -1 1
25 16 -1 1
26 16 -1 1
27 16 -1 1
87 16 -1 2
15 17 -1 1
19 17 -1 1
23 17 -1 1
27 17 -1 1
31 17 -1 1
32 17 -1 1
33 17 -1 1
34 17 -1 1
35 17 -1 1
15 18 -1 1
19 18 -1 1
23 18 -1 1
27 18 -1 1
35 18 -1 1
15 19 -1 1
19 19 -1 1
23 19 -1 1
27 19 -1 1
35 19 -1 1
42 19 -1 1
43 19 -1 1
44 19 -1 1
45 19 -1 1
46 19 -1 1
15 20 -1 1
19 20 -1 1
22 20 -1 1
27 20 -1 1
35 20 -1 1
46 20 -1 1
53 20 -1 1
15 21 -1 1
16 21 -1 1
17 21 -1 1
18 21 -1 1
19 21 -1 1
22 21 -1 1
23 21 -1 1
27 21 -1 1
35 21 -1 1
46 21 -1 1
52 21 -1 1
53 21 -1 1
63 21 -1 1
14 22 -1 1
15 22 -1 1
16 22 -1 1
17 22 -1 1
18 22 -1 1
19 22 -1 1
23 22 -1 1
27 22 -1 1
34 22 -1 1
35 22 -1 1
45 22 -1 1
46 22 -1 1
52 22 -1 1
53 22 -1 1
62 22 -1 1
63 22 -1 1
70 22 -1 1
71 22 -1 1
72 22 -1 1
14 23 -1 1
19 23 -1 1
23 23 -1 1
27 23 -1 1
34 23 -1 1
45 23 -1 1
52 23 -1 1
53 23 -1 1
61 23 -1 1
62 23 -1 1
69 23 -1 1
70 23 -1 1
72 23 -1 1
14 24 -1 1
19 24 -1 1
23 24 -1 1
27 24 -1 1
34 24 -1 1
45 24 -1 1
52 24 -1 1
53 24 -1 1
60 24 -1 1
62 24 -1 1
69 24 -1 1
72 24 -1 1
14 25 -1 1
19 25 -1 1
23 25 -1 1
27 25 -1 1
33 25 -1 1
34 25 -1 1
44 25 -1 1
45 25 -1 1
51 25 -1 1
52 25 -1 1
53 25 -1 1
62 25 -1 1
69 25 -1 1
72 25 -1 1
14 26 -1 1
19 26 -1 1
23 26 -1 1
27 26 -1 1
33 26 -1 1
44 26 -1 1
51 26 -1 1
54 26 -1 1
62 26 -1 1
69 26 -1 1
72 26 -1 1
14 27 -1 1
19 27 -1 1
23 27 -1 1
27 27 -1 1
32 27 -1 1
44 27 -1 1
51 27 -1 1
54 27 -1 1
62 27 -1 1
72 27 -1 1
14 28 -1 1
15 28 -1 1
19 28 -1 1
23 28 -1 1
27 28 -1 1
31 28 -1 1
32 28 -1 1
44 28 -1 1
51 28 -1 1
54 28 -1 1
62 28 -1 1
72 28 -1 1
15 29 -1 1
16 29 -1 1
17 29 -1 1
18 29 -1 1
19 29 -1 1
23 29 -1 1
26 29 -1 1
27 29 -1 1
31 29 -1 1
43 29 -1 1
44 29 -1 1
50 29 -1 1
54 29 -1 1
62 29 -1 1
72 29 -1 1
24 30 -1 1
25 30 -1 1
26 30 -1 1
31 30 -1 1
43 30 -1 1
50 30 -1 1
54 30 -1 1
62 30 -1 1
71 30 -1 1
72 30 -1 1
31 31 -1 1
32 31 -1 1
33 31 -1 1
42 31 -1 1
43 31 -1 1
50 31 -1 1
54 31 -1 1
62 31 -1 1
70 31 -1 1
71 31 -1 1
33 32 -1 1
34 32 -1 1
42 32 -1 1
50 32 -1 1
51 32 -1 1
52 32 -1 1
53 32 -1 1
54 32 -1 1
55 32 -1 1
62 32 -1 1
70 32 -1 1
41 33 -1 1
42 33 -1 1
53 33 -1 1
62 33 -1 1
69 33 -1 1
70 33 -1 1
41 34 -1 1
53 34 -1 1
62 34 -1 1
68 34 -1 1
69 34 -1 1
53 35 -1 1
62 35 -1 1
68 35 -1 1
53 36 -1 1
62 36 -1 1
68 36 -1 1
62 37 -1 1
68 37 -1 1
69 37 -1 1
69 38 -1 1
70 38 -1 1
71 38 -1 1
72 38 -1 1
5 40 -1 2
5 41 -1 2
5 42 -1 2
5 43 -1 2
5 44 -1 2
88 44 -1 2
5 45 -1 2
87 45 -1 2
5 46 -1 2
87 46 -1 2
5 47 -1 2
87 47 -1 2
5 48 -1 2
86 48 -1 2
5 49 -1 2
85 49 -1 2
86 49 -1 2
5 50 -1 2
85 50 -1 2
5 51 -1 2
6 51 -1 2
84 51 -1 2
6 52 -1 2
83 52 -1 2
84 52 -1 2
6 53 -1 2
81 53 -1 2
82 53 -1 2
83 53 -1 2
7 54 -1 2
80 54 -1 2
81 54 -1 2
7 55 -1 2
77 55 -1 2
78 55 -1 2
79 55 -1 2
7 56 -1 2
8 56 -1 2
75 56 -1 2
76 56 -1 2
77 56 -1 2
8 57 -1 2
9 57 -1 2
73 57 -1 2
74 57 -1 2
75 57 -1 2
9 58 -1 2
70 58 -1 2
71 58 -1 2
72 58 -1 2
73 58 -1 2
9 59 -1 2
10 59 -1 2
68 59 -1 2
69 59 -1 2
70 59 -1 2
10 60 -1 2
66 60 -1 2
67 60 -1 2
68 60 -1 2
10 61 -1 2
11 61 -1 2
61 61 -1 2
62 61 -1 2
63 61 -1 2
64 61 -1 2
65 61 -1 2
11 62 -1 2
12 62 -1 2
57 62 -1 2
58 62 -1 2
59 62 -1 2
60 62 -1 2
61 62 -1 2
12 63 -1 2
13 63 -1 2
14 63 -1 2
14 64 -1 2
15 64 -1 2
15 65 -1 2
16 66 -1 2
